<?xml version="1.0" encoding="UTF-8" standalone="no"?>
<!-- Created with Inkscape (http://www.inkscape.org/) -->

<svg
   xmlns:osb="http://www.openswatchbook.org/uri/2009/osb"
   xmlns:dc="http://purl.org/dc/elements/1.1/"
   xmlns:cc="http://creativecommons.org/ns#"
   xmlns:rdf="http://www.w3.org/1999/02/22-rdf-syntax-ns#"
   xmlns:svg="http://www.w3.org/2000/svg"
   xmlns="http://www.w3.org/2000/svg"
   xmlns:xlink="http://www.w3.org/1999/xlink"
   xmlns:sodipodi="http://sodipodi.sourceforge.net/DTD/sodipodi-0.dtd"
   xmlns:inkscape="http://www.inkscape.org/namespaces/inkscape"
   width="240mm"
   height="125mm"
   viewBox="0 0 240 125"
   version="1.1"
   id="svg8"
   inkscape:version="0.92.4 (5da689c313, 2019-01-14)"
   sodipodi:docname="email-is.svg">
  <defs
     id="defs2">
    <linearGradient
       id="linearGradient28380"
       osb:paint="solid">
      <stop
         style="stop-color:#b3b3b3;stop-opacity:1;"
         offset="0"
         id="stop28378" />
    </linearGradient>
    <linearGradient
       inkscape:collect="always"
       id="linearGradient856">
      <stop
         style="stop-color:#cccccc;stop-opacity:1;"
         offset="0"
         id="stop852" />
      <stop
         style="stop-color:#cccccc;stop-opacity:0;"
         offset="1"
         id="stop854" />
    </linearGradient>
    <linearGradient
       inkscape:collect="always"
       xlink:href="#linearGradient856"
       id="linearGradient858"
       x1="82.095139"
       y1="22.45153"
       x2="81.73661"
       y2="-46.542347"
       gradientUnits="userSpaceOnUse" />
  </defs>
  <sodipodi:namedview
     id="base"
     pagecolor="#ffffff"
     bordercolor="#666666"
     borderopacity="1.0"
     inkscape:pageopacity="0.0"
     inkscape:pageshadow="2"
     inkscape:zoom="0.49216239"
     inkscape:cx="372.55851"
     inkscape:cy="262.83589"
     inkscape:document-units="mm"
     inkscape:current-layer="layer1"
     showgrid="false"
     inkscape:window-width="1366"
     inkscape:window-height="693"
     inkscape:window-x="0"
     inkscape:window-y="27"
     inkscape:window-maximized="1" />
  <metadata
     id="metadata5">
    <rdf:RDF>
      <cc:Work
         rdf:about="">
        <dc:format>image/svg+xml</dc:format>
        <dc:type
           rdf:resource="http://purl.org/dc/dcmitype/StillImage" />
        <dc:title></dc:title>
      </cc:Work>
    </rdf:RDF>
  </metadata>
  <g
     inkscape:label="Ebene 1"
     inkscape:groupmode="layer"
     id="layer1"
     transform="translate(0,-172)">
    <g
       id="g28395"
       transform="translate(-35,92.5)">
      <rect
         ry="0"
         y="82.86692"
         x="39.818779"
         height="118.26616"
         width="230.36244"
         id="rect815"
         style="opacity:1;fill:#f2f2f2;fill-opacity:1;stroke:#0d0d0d;stroke-width:2.50449324;stroke-linecap:butt;stroke-linejoin:round;stroke-miterlimit:4;stroke-dasharray:none;stroke-dashoffset:0;stroke-opacity:1;paint-order:normal" />
      <path
         transform="matrix(1.8966306,0,0,0.61828818,0.80426298,176.60985)"
         inkscape:transform-center-y="-10.646687"
         inkscape:transform-center-x="0.27613885"
         d="M 141.3871,38.955092 21.212554,38.450739 81.736608,-65.37129 Z"
         inkscape:randomized="0"
         inkscape:rounded="0"
         inkscape:flatsided="true"
         sodipodi:arg2="1.5749931"
         sodipodi:arg1="0.52779559"
         sodipodi:r2="34.691711"
         sodipodi:r1="69.383415"
         sodipodi:cy="4.0115137"
         sodipodi:cx="81.445419"
         sodipodi:sides="3"
         id="path819"
         style="opacity:1;fill:url(#linearGradient858);fill-opacity:1;stroke:#000000;stroke-width:2.49977779;stroke-linecap:butt;stroke-linejoin:round;stroke-miterlimit:4;stroke-dasharray:none;stroke-dashoffset:0;stroke-opacity:1;paint-order:normal"
         sodipodi:type="star" />
      <path
         transform="matrix(1.8966306,0,0,-0.61828818,0.80426298,107.41497)"
         inkscape:transform-center-y="10.646687"
         inkscape:transform-center-x="0.27613885"
         d="M 141.3871,38.955092 21.212554,38.450739 81.736608,-65.37129 Z"
         inkscape:randomized="0"
         inkscape:rounded="0"
         inkscape:flatsided="true"
         sodipodi:arg2="1.5749931"
         sodipodi:arg1="0.52779559"
         sodipodi:r2="34.691711"
         sodipodi:r1="69.383415"
         sodipodi:cy="4.0115137"
         sodipodi:cx="81.445419"
         sodipodi:sides="3"
         id="path819-3"
         style="opacity:1;fill:#b3b3b3;fill-opacity:1;stroke:#0d0d0d;stroke-width:2.5;stroke-linecap:butt;stroke-linejoin:round;stroke-miterlimit:4;stroke-dasharray:none;stroke-dashoffset:0;stroke-opacity:1;paint-order:normal"
         sodipodi:type="star" />
    </g>
  </g>
</svg>
