<?xml version="1.0" encoding="UTF-8" standalone="no"?>
<svg
   xmlns:osb="http://www.openswatchbook.org/uri/2009/osb"
   xmlns:dc="http://purl.org/dc/elements/1.1/"
   xmlns:cc="http://creativecommons.org/ns#"
   xmlns:rdf="http://www.w3.org/1999/02/22-rdf-syntax-ns#"
   xmlns:svg="http://www.w3.org/2000/svg"
   xmlns="http://www.w3.org/2000/svg"
   xmlns:xlink="http://www.w3.org/1999/xlink"
   id="svg8"
   version="1.1"
   viewBox="0 0 122 122"
   height="122mm"
   width="122mm">
  <title
     id="title8119">Verbindungen der Erde Global</title>
  <defs
     id="defs2">
    <linearGradient
       osb:paint="solid"
       id="linearGradient7432">
      <stop
         id="stop7430"
         offset="0"
         style="stop-color:#240a3b;stop-opacity:1;" />
    </linearGradient>
    <linearGradient
       id="linearGradient7239">
      <stop
         id="stop7235"
         offset="0"
         style="stop-color:#000000;stop-opacity:1;" />
      <stop
         id="stop7237"
         offset="1"
         style="stop-color:#000000;stop-opacity:0;" />
    </linearGradient>
    <linearGradient
       id="linearGradient7163">
      <stop
         id="stop7159"
         offset="0"
         style="stop-color:#240a3b;stop-opacity:1;" />
      <stop
         id="stop7161"
         offset="1"
         style="stop-color:#240a3b;stop-opacity:0;" />
    </linearGradient>
    <linearGradient
       id="linearGradient6968-1-8">
      <stop
         id="stop6964"
         offset="0"
         style="stop-color:#ff013d;stop-opacity:1;" />
      <stop
         id="stop6966"
         offset="1"
         style="stop-color:#ff013d;stop-opacity:0;" />
    </linearGradient>
    <marker
       style="overflow:visible"
       id="TriangleInS"
       refX="0"
       refY="0"
       orient="auto">
      <path
         transform="scale(-0.2)"
         style="fill:#ffff01;fill-opacity:1;fill-rule:evenodd;stroke:#ff013d;stroke-width:1.00000003pt;stroke-opacity:1"
         d="M 5.77,0 -2.88,5 V -5 Z"
         id="path5897" />
    </marker>
    <marker
       style="overflow:visible"
       id="Tail"
       refX="0"
       refY="0"
       orient="auto">
      <g
         style="fill:#ffff01;fill-opacity:1;stroke:#ff013d;stroke-opacity:1"
         transform="scale(-1.2)"
         id="g5806">
        <path
           style="fill:#ffff01;fill-opacity:1;fill-rule:evenodd;stroke:#ff013d;stroke-width:0.80000001;stroke-linecap:round;stroke-opacity:1"
           d="M -3.8048674,-3.9585227 0.54352094,0"
           id="path5794" />
        <path
           style="fill:#ffff01;fill-opacity:1;fill-rule:evenodd;stroke:#ff013d;stroke-width:0.80000001;stroke-linecap:round;stroke-opacity:1"
           d="M -1.2866832,-3.9585227 3.0617053,0"
           id="path5796" />
        <path
           style="fill:#ffff01;fill-opacity:1;fill-rule:evenodd;stroke:#ff013d;stroke-width:0.80000001;stroke-linecap:round;stroke-opacity:1"
           d="M 1.3053582,-3.9585227 5.6537466,0"
           id="path5798" />
        <path
           style="fill:#ffff01;fill-opacity:1;fill-rule:evenodd;stroke:#ff013d;stroke-width:0.80000001;stroke-linecap:round;stroke-opacity:1"
           d="M -3.8048674,4.1775838 0.54352094,0.21974226"
           id="path5800" />
        <path
           style="fill:#ffff01;fill-opacity:1;fill-rule:evenodd;stroke:#ff013d;stroke-width:0.80000001;stroke-linecap:round;stroke-opacity:1"
           d="M -1.2866832,4.1775838 3.0617053,0.21974226"
           id="path5802" />
        <path
           style="fill:#ffff01;fill-opacity:1;fill-rule:evenodd;stroke:#ff013d;stroke-width:0.80000001;stroke-linecap:round;stroke-opacity:1"
           d="M 1.3053582,4.1775838 5.6537466,0.21974226"
           id="path5804" />
      </g>
    </marker>
    <marker
       style="overflow:visible"
       id="Arrow1Mend"
       refX="0"
       refY="0"
       orient="auto">
      <path
         transform="matrix(-0.4,0,0,-0.4,-4,0)"
         style="fill:#ffff01;fill-opacity:1;fill-rule:evenodd;stroke:#ff013d;stroke-width:1.00000003pt;stroke-opacity:1"
         d="M 0,0 5,-5 -12.5,0 5,5 Z"
         id="path5767" />
    </marker>
    <marker
       style="overflow:visible"
       id="marker6348"
       refX="0"
       refY="0"
       orient="auto">
      <path
         transform="matrix(0.8,0,0,0.8,10,0)"
         style="fill:#ffff01;fill-opacity:1;fill-rule:evenodd;stroke:#ff013d;stroke-width:1.00000003pt;stroke-opacity:1"
         d="M 0,0 5,-5 -12.5,0 5,5 Z"
         id="path6346" />
    </marker>
    <marker
       style="overflow:visible"
       id="marker6290"
       refX="0"
       refY="0"
       orient="auto">
      <path
         transform="matrix(0.8,0,0,0.8,10,0)"
         style="fill:#ffff01;fill-opacity:1;fill-rule:evenodd;stroke:#ff013d;stroke-width:1.00000003pt;stroke-opacity:1"
         d="M 0,0 5,-5 -12.5,0 5,5 Z"
         id="path6288" />
    </marker>
    <marker
       style="overflow:visible"
       id="marker6214"
       refX="0"
       refY="0"
       orient="auto">
      <path
         transform="matrix(0.8,0,0,0.8,10,0)"
         style="fill:#ffff01;fill-opacity:1;fill-rule:evenodd;stroke:#ff013d;stroke-width:1.00000003pt;stroke-opacity:1"
         d="M 0,0 5,-5 -12.5,0 5,5 Z"
         id="path6212" />
    </marker>
    <marker
       style="overflow:visible"
       id="marker6144"
       refX="0"
       refY="0"
       orient="auto">
      <path
         transform="matrix(0.8,0,0,0.8,10,0)"
         style="fill:#ffff01;fill-opacity:1;fill-rule:evenodd;stroke:#ff013d;stroke-width:1.00000003pt;stroke-opacity:1"
         d="M 0,0 5,-5 -12.5,0 5,5 Z"
         id="path6142" />
    </marker>
    <marker
       style="overflow:visible"
       id="marker6104"
       refX="0"
       refY="0"
       orient="auto">
      <path
         transform="matrix(0.8,0,0,0.8,10,0)"
         style="fill:#ffff01;fill-opacity:1;fill-rule:evenodd;stroke:#ff013d;stroke-width:1.00000003pt;stroke-opacity:1"
         d="M 0,0 5,-5 -12.5,0 5,5 Z"
         id="path6102" />
    </marker>
    <marker
       style="overflow:visible"
       id="Arrow1Lstart"
       refX="0"
       refY="0"
       orient="auto">
      <path
         transform="matrix(0.8,0,0,0.8,10,0)"
         style="fill:#ffff01;fill-opacity:1;fill-rule:evenodd;stroke:#ff013d;stroke-width:1.00000003pt;stroke-opacity:1"
         d="M 0,0 5,-5 -12.5,0 5,5 Z"
         id="path5758" />
    </marker>
    <linearGradient
       gradientUnits="userSpaceOnUse"
       y2="135.36473"
       x2="130.92056"
       y1="130.07072"
       x1="132.80843"
       id="linearGradient6970"
       xlink:href="#linearGradient6968-1-8" />
    <linearGradient
       gradientUnits="userSpaceOnUse"
       y2="130.06706"
       x2="132.67038"
       y1="135.35905"
       x1="131.04477"
       id="linearGradient6970-7"
       xlink:href="#linearGradient6968-1-8"
       gradientTransform="translate(-24.577984,70.444796)" />
    <linearGradient
       gradientUnits="userSpaceOnUse"
       y2="134.74901"
       x2="133.59285"
       y1="130.66151"
       x1="130.0992"
       id="linearGradient6970-3"
       xlink:href="#linearGradient6968-1-8"
       gradientTransform="matrix(0.74990267,0,0,0.74990267,54.961005,63.96759)" />
    <linearGradient
       gradientUnits="userSpaceOnUse"
       y2="130.50204"
       x2="130.26416"
       y1="134.95229"
       x1="133.53265"
       id="linearGradient6970-3-2"
       xlink:href="#linearGradient6968-1-8"
       gradientTransform="matrix(0.74990266,0,0,0.74990266,76.812088,97.348256)" />
    <linearGradient
       gradientUnits="userSpaceOnUse"
       y2="165.64151"
       x2="175.94345"
       y1="160.41245"
       x1="179.96307"
       id="linearGradient7165"
       xlink:href="#linearGradient7163" />
    <linearGradient
       gradientUnits="userSpaceOnUse"
       y2="161.43867"
       x2="179.24173"
       y1="166.30351"
       x1="175.28429"
       id="linearGradient7165-3"
       xlink:href="#linearGradient7163"
       gradientTransform="translate(-38.44509,49.712721)" />
    <linearGradient
       gradientTransform="translate(0,2.1166667)"
       gradientUnits="userSpaceOnUse"
       y2="196.03435"
       x2="126.29936"
       y1="197.06427"
       x1="130.47865"
       id="linearGradient7241"
       xlink:href="#linearGradient7239" />
    <linearGradient
       y2="196.12885"
       x2="126.15762"
       y1="197.06427"
       x1="130.47865"
       gradientUnits="userSpaceOnUse"
       id="linearGradient7315"
       xlink:href="#linearGradient7239" />
    <linearGradient
       gradientUnits="userSpaceOnUse"
       y2="163.30368"
       x2="180.65228"
       y1="162.79956"
       x1="174.05203"
       id="linearGradient7165-5"
       xlink:href="#linearGradient7163"
       gradientTransform="matrix(0.6459732,0,0,0.6459732,-17.996557,61.13033)" />
    <linearGradient
       gradientTransform="matrix(1.178062,-1.7320322e-8,0,0.87725297,-335.36451,71.0227)"
       gradientUnits="userSpaceOnUse"
       y2="-294.00232"
       x2="273.40417"
       y1="-294.00232"
       x1="208.9529"
       id="linearGradient7434"
       xlink:href="#linearGradient7432" />
    <filter
       height="1.006986"
       y="-0.0034929912"
       width="1.0029577"
       x="-0.0014788663"
       id="filter7624"
       style="color-interpolation-filters:sRGB">
      <feGaussianBlur
         id="feGaussianBlur7626"
         stdDeviation="0.059600982" />
    </filter>
    <linearGradient
       gradientUnits="userSpaceOnUse"
       y2="162.92407"
       x2="175.04086"
       y1="164.02266"
       x1="181.17534"
       id="linearGradient7165-4"
       xlink:href="#linearGradient7163"
       gradientTransform="translate(9.0164483,8.9315236)" />
    <filter
       height="1.0048"
       y="-0.0024000001"
       width="1.0048"
       x="-0.0024000001"
       id="filter7660"
       style="color-interpolation-filters:sRGB">
      <feGaussianBlur
         id="feGaussianBlur7662"
         stdDeviation="0.0075669947" />
    </filter>
    <linearGradient
       gradientUnits="userSpaceOnUse"
       y2="163.82425"
       x2="180.02747"
       y1="162.69499"
       x1="174.60391"
       id="linearGradient7165-4-3"
       xlink:href="#linearGradient7163"
       gradientTransform="translate(9.0164483,8.9315236)" />
    <filter
       height="1.0048"
       y="-0.0024000001"
       width="1.0048"
       x="-0.0024000001"
       id="filter7660-9"
       style="color-interpolation-filters:sRGB">
      <feGaussianBlur
         id="feGaussianBlur7662-2"
         stdDeviation="0.0075669947" />
    </filter>
    <filter
       height="1.0038292"
       y="-0.001914661"
       width="1.0064194"
       x="-0.003209695"
       id="filter7833"
       style="color-interpolation-filters:sRGB">
      <feGaussianBlur
         id="feGaussianBlur7835"
         stdDeviation="0.011904257" />
    </filter>
    <filter
       height="1.0048"
       y="-0.0024000001"
       width="1.0048"
       x="-0.0024000001"
       id="filter7861"
       style="color-interpolation-filters:sRGB">
      <feGaussianBlur
         id="feGaussianBlur7863"
         stdDeviation="0.0014" />
    </filter>
    <filter
       height="1.0048"
       y="-0.0024000001"
       width="1.0048"
       x="-0.0024000001"
       id="filter7869"
       style="color-interpolation-filters:sRGB">
      <feGaussianBlur
         id="feGaussianBlur7871"
         stdDeviation="0.0014" />
    </filter>
    <linearGradient
       gradientTransform="matrix(0.4000331,0,0,0.4000331,29.496175,130.08175)"
       gradientUnits="userSpaceOnUse"
       y2="195.17805"
       x2="129.28159"
       y1="197.40384"
       x1="126.34486"
       id="linearGradient7241-4"
       xlink:href="#linearGradient7239" />
    <filter
       height="1.0072511"
       y="-0.0036255971"
       width="1.0034432"
       x="-0.0017216662"
       id="filter7956"
       style="color-interpolation-filters:sRGB">
      <feGaussianBlur
         id="feGaussianBlur7958"
         stdDeviation="0.044605792" />
    </filter>
    <filter
       height="1.0288"
       y="-0.0144"
       width="1.0288"
       x="-0.0144"
       id="filter7976"
       style="color-interpolation-filters:sRGB">
      <feGaussianBlur
         id="feGaussianBlur7978"
         stdDeviation="0.011587166" />
    </filter>
    <filter
       height="1.0288"
       y="-0.0144"
       width="1.0288"
       x="-0.0144"
       id="filter7976-0"
       style="color-interpolation-filters:sRGB">
      <feGaussianBlur
         id="feGaussianBlur7978-6"
         stdDeviation="0.011587166" />
    </filter>
    <linearGradient
       y2="197.30399"
       x2="127.02278"
       y1="195.41078"
       x1="129.88808"
       gradientTransform="matrix(0.4000331,0,0,0.4000331,88.564056,102.04585)"
       gradientUnits="userSpaceOnUse"
       id="linearGradient8063"
       xlink:href="#linearGradient7239" />
    <linearGradient
       y2="130.06706"
       x2="132.67038"
       y1="135.35905"
       x1="131.04477"
       gradientTransform="translate(-24.577984,70.444796)"
       gradientUnits="userSpaceOnUse"
       id="linearGradient8105"
       xlink:href="#linearGradient6968-1-8" />
    <linearGradient
       y2="134.74901"
       x2="133.59285"
       y1="130.66151"
       x1="130.0992"
       gradientTransform="matrix(0.74990267,0,0,0.74990267,54.961005,63.96759)"
       gradientUnits="userSpaceOnUse"
       id="linearGradient8107"
       xlink:href="#linearGradient6968-1-8" />
    <linearGradient
       y2="130.50204"
       x2="130.26416"
       y1="134.95229"
       x1="133.53265"
       gradientTransform="matrix(0.74990266,0,0,0.74990266,76.812088,97.348256)"
       gradientUnits="userSpaceOnUse"
       id="linearGradient8109"
       xlink:href="#linearGradient6968-1-8" />
    <linearGradient
       y2="165.64151"
       x2="175.94345"
       y1="160.41245"
       x1="179.96307"
       gradientUnits="userSpaceOnUse"
       id="linearGradient8111"
       xlink:href="#linearGradient7163" />
    <linearGradient
       y2="161.43867"
       x2="179.24173"
       y1="166.30351"
       x1="175.28429"
       gradientTransform="translate(-38.44509,49.712721)"
       gradientUnits="userSpaceOnUse"
       id="linearGradient8113"
       xlink:href="#linearGradient7163" />
    <linearGradient
       y2="196.03435"
       x2="126.29936"
       y1="197.06427"
       x1="130.47865"
       gradientTransform="translate(0,2.1166667)"
       gradientUnits="userSpaceOnUse"
       id="linearGradient8115"
       xlink:href="#linearGradient7239" />
  </defs>
  <metadata
     id="metadata5">
    <rdf:RDF>
      <cc:Work
         rdf:about="">
        <dc:format>image/svg+xml</dc:format>
        <dc:type
           rdf:resource="http://purl.org/dc/dcmitype/StillImage" />
        <dc:title>Verbindungen der Erde Global</dc:title>
        <dc:date>26.03.2020</dc:date>
        <dc:creator>
          <cc:Agent>
            <dc:title>Marek Küthe</dc:title>
          </cc:Agent>
        </dc:creator>
        <dc:rights>
          <cc:Agent>
            <dc:title>Marek Küthe</dc:title>
          </cc:Agent>
        </dc:rights>
        <cc:license
           rdf:resource="http://www.wtfpl.net/" />
        <dc:description>
Copyright 2020 Marek Küthe
This work is free. You can redistribute it and/or modify it under the
terms of the Do What The Fuck You Want To Public License, Version 2,
as published by Sam Hocevar. See http://www.wtfpl.net/ for more details.</dc:description>
      </cc:Work>
    </rdf:RDF>
  </metadata>
  <g
     transform="translate(0,-175)"
     id="layer1">
    <g
       transform="translate(-44,44)"
       id="g8103">
      <circle
         style="opacity:1;fill:#2e3d77;fill-opacity:1;stroke:none;stroke-width:0.79374999;stroke-miterlimit:4;stroke-dasharray:none;stroke-opacity:1"
         id="path828"
         cx="105"
         cy="192"
         r="60" />
      <rect
         style="opacity:0.85;fill:#1a1a1a;fill-opacity:1;fill-rule:nonzero;stroke:#000000;stroke-width:0.04352763;stroke-miterlimit:4;stroke-dasharray:none;stroke-dashoffset:0;stroke-opacity:1;filter:url(#filter7956)"
         id="rect7888"
         width="64.499641"
         height="0.68324476"
         x="-91.51767"
         y="235.38968"
         transform="matrix(0.90491379,-0.42559492,0.69527761,0.71874129,0,0)" />
      <rect
         style="opacity:0.86000001;fill:#895ba5;fill-opacity:1;fill-rule:nonzero;stroke:url(#linearGradient7434);stroke-width:0.42940235;stroke-miterlimit:4;stroke-dasharray:3.43521906, 0.85880477, 0.42940238, 0.85880477;stroke-dashoffset:0;stroke-opacity:1;filter:url(#filter7624)"
         id="rect5517-2-29-4"
         width="75.429977"
         height="4.872189"
         x="-88.956245"
         y="-189.32784"
         transform="matrix(-0.93796028,-0.34674271,-0.3608524,-0.93262294,0,0)" />
      <circle
         style="opacity:1;fill:#f8f6ed;fill-opacity:1;fill-rule:nonzero;stroke:none;stroke-width:0.55562496;stroke-miterlimit:4;stroke-dasharray:none;stroke-opacity:1"
         id="path5557"
         cx="80.999008"
         cy="152.48323"
         r="3.5" />
      <circle
         style="opacity:1;fill:#f8f6ed;fill-opacity:1;fill-rule:nonzero;stroke:none;stroke-width:0.55562496;stroke-miterlimit:4;stroke-dasharray:none;stroke-opacity:1"
         id="path5557-3"
         cx="112.7276"
         cy="228.62598"
         r="3.5" />
      <rect
         style="opacity:1;fill:#f8f6ed;fill-opacity:1;fill-rule:nonzero;stroke:none;stroke-width:0.18006401;stroke-miterlimit:4;stroke-dasharray:none;stroke-opacity:1"
         id="rect5517-6"
         width="30.207331"
         height="2.1364779"
         x="196.12416"
         y="-290.98004"
         transform="matrix(-0.75749383,0.65284232,-0.99141349,-0.13076426,0,0)" />
      <circle
         style="opacity:1;fill:#f8f6ed;fill-opacity:1;fill-rule:nonzero;stroke:none;stroke-width:0.31749997;stroke-miterlimit:4;stroke-dasharray:none;stroke-opacity:1"
         id="path5557-3-7"
         cx="138.19563"
         cy="166.42384"
         r="2" />
      <circle
         style="opacity:1;fill:#f8f6ed;fill-opacity:1;fill-rule:nonzero;stroke:none;stroke-width:0.3175;stroke-miterlimit:4;stroke-dasharray:none;stroke-opacity:1"
         id="path5557-3-7-5"
         cx="115.9855"
         cy="185.55228"
         r="2" />
      <circle
         style="opacity:1;fill:#f8f6ed;fill-opacity:1;fill-rule:nonzero;stroke:none;stroke-width:0.27781251;stroke-miterlimit:4;stroke-dasharray:none;stroke-opacity:1"
         id="path5557-3-7-3"
         cx="134.43913"
         cy="162.73444"
         r="1.75" />
      <rect
         style="opacity:1;fill:#f8f6ed;fill-opacity:1;fill-rule:nonzero;stroke:none;stroke-width:0.14038552;stroke-miterlimit:4;stroke-dasharray:none;stroke-opacity:1"
         id="rect5517-6-5"
         width="20.010925"
         height="1.9603539"
         x="-80.505974"
         y="-152.35133"
         transform="matrix(-0.96329325,-0.26845134,-0.36912255,-0.92938073,0,0)" />
      <circle
         style="opacity:1;fill:#f8f6ed;fill-opacity:1;fill-rule:nonzero;stroke:none;stroke-width:0.27781251;stroke-miterlimit:4;stroke-dasharray:none;stroke-opacity:1"
         id="path5557-3-7-3-6"
         cx="113.83535"
         cy="156.80099"
         r="1.75" />
      <circle
         style="opacity:1;fill:#eae4c8;fill-opacity:1;fill-rule:nonzero;stroke:none;stroke-width:0.55562496;stroke-miterlimit:4;stroke-dasharray:none;stroke-opacity:1"
         id="path5557-3-9"
         cx="115.46043"
         cy="237.93343"
         r="3.5" />
      <circle
         style="opacity:1;fill:#eae4c8;fill-opacity:1;fill-rule:nonzero;stroke:none;stroke-width:0.43656248;stroke-miterlimit:4;stroke-dasharray:none;stroke-opacity:1"
         id="path5557-3-9-1"
         cx="107.72921"
         cy="161.92867"
         r="2.75" />
      <rect
         style="opacity:1;fill:#ffff01;fill-opacity:1;fill-rule:nonzero;stroke:#ff013d;stroke-width:0.21491858;stroke-miterlimit:4;stroke-dasharray:0.02149186, 0.02149186;stroke-dashoffset:0;stroke-opacity:1"
         id="rect5517-2-2-2"
         width="39.320431"
         height="2.3413639"
         x="255.75352"
         y="-55.437199"
         transform="matrix(0.3682498,0.92972689,-0.47973118,0.87741552,0,0)" />
      <rect
         style="opacity:1;fill:#895ba5;fill-opacity:1;fill-rule:nonzero;stroke:#240a3b;stroke-width:0.42239419;stroke-miterlimit:4;stroke-dasharray:3.37915377, 0.84478845, 0.42239423, 0.84478845;stroke-dashoffset:0;stroke-opacity:1"
         id="rect5517-2-29"
         width="64.028877"
         height="5.5539155"
         x="247.54973"
         y="-334.02249"
         transform="matrix(-0.75359369,0.65734051,-0.99543779,-0.09541279,0,0)" />
      <rect
         style="opacity:1;fill:#1a1a1a;fill-opacity:1;fill-rule:nonzero;stroke:none;stroke-width:0.25800857;stroke-miterlimit:4;stroke-dasharray:none;stroke-opacity:1"
         id="rect5517-2-7"
         width="65.937294"
         height="2.0095282"
         x="-198.48274"
         y="-164.55728"
         transform="matrix(-0.96984936,-0.24370519,0.40066457,-0.91622481,0,0)" />
      <rect
         style="opacity:1;fill:#f8f6ed;fill-opacity:1;fill-rule:nonzero;stroke:none;stroke-width:0.36252823;stroke-miterlimit:4;stroke-dasharray:none;stroke-opacity:1"
         id="rect5517"
         width="84.73465"
         height="3.0873055"
         x="170.91054"
         y="-18.105177"
         transform="matrix(0.38223441,0.9240654,-0.92189257,0.3874456,0,0)" />
      <rect
         style="opacity:1;fill:#eae4c8;fill-opacity:1;fill-rule:nonzero;stroke:none;stroke-width:0.34054905;stroke-miterlimit:4;stroke-dasharray:none;stroke-opacity:1"
         id="rect5517-2"
         width="74.817673"
         height="3.0854039"
         x="179.21498"
         y="-92.46328"
         transform="matrix(0.1015578,0.99482964,-0.98672343,0.1624096,0,0)" />
      <rect
         style="opacity:1;fill:#ffff01;fill-opacity:1;fill-rule:nonzero;stroke:#ff013d;stroke-width:0.3403208;stroke-miterlimit:4;stroke-dasharray:0.03403208, 0.03403208;stroke-dashoffset:0;stroke-opacity:1"
         id="rect5517-2-2"
         width="74.817673"
         height="3.0854039"
         x="91.439095"
         y="-169.89082"
         transform="matrix(-0.50258423,0.86452825,-0.893738,-0.44858933,0,0)" />
      <circle
         style="opacity:1;fill:#ffff01;fill-opacity:1;fill-rule:nonzero;stroke:url(#linearGradient6970);stroke-width:0.32432431;stroke-linejoin:miter;stroke-miterlimit:4;stroke-dasharray:0.03243243, 0.03243243;stroke-dashoffset:0;stroke-opacity:1"
         id="path5557-3-9-7"
         cx="131.8629"
         cy="132.70953"
         r="2.8378379"
         transform="rotate(11)" />
      <circle
         style="opacity:1;fill:#ffff01;fill-opacity:1;fill-rule:nonzero;stroke:url(#linearGradient8105);stroke-width:0.32432431;stroke-linejoin:miter;stroke-miterlimit:4;stroke-dasharray:0.03243243, 0.03243243;stroke-dashoffset:0;stroke-opacity:1"
         id="path5557-3-9-7-0"
         cx="107.28491"
         cy="203.15433"
         r="2.8378379"
         transform="rotate(11)" />
      <circle
         style="opacity:1;fill:#ffff01;fill-opacity:1;fill-rule:nonzero;stroke:url(#linearGradient8107);stroke-width:0.24321166;stroke-linejoin:miter;stroke-miterlimit:4;stroke-dasharray:0.02432117, 0.02432117;stroke-dashoffset:0;stroke-opacity:1"
         id="path5557-3-9-7-9"
         cx="153.84534"
         cy="163.48682"
         r="2.1281023"
         transform="rotate(11)" />
      <circle
         style="opacity:1;fill:#ffff01;fill-opacity:1;fill-rule:nonzero;stroke:url(#linearGradient8109);stroke-width:0.24321166;stroke-linejoin:miter;stroke-miterlimit:4;stroke-dasharray:0.02432117, 0.02432117;stroke-dashoffset:0;stroke-opacity:1"
         id="path5557-3-9-7-9-9"
         cx="175.69641"
         cy="196.86749"
         r="2.1281023"
         transform="rotate(11)" />
      <circle
         style="opacity:1;fill:#895ba5;fill-opacity:1;fill-rule:nonzero;stroke:url(#linearGradient8111);stroke-width:0.43196729;stroke-linejoin:miter;stroke-miterlimit:4;stroke-dasharray:3.45573825, 0.86393456, 0.43196728, 0.86393456;stroke-dashoffset:0;stroke-opacity:1"
         id="path5557-3-9-7-0-1"
         cx="177.63667"
         cy="163.41183"
         r="3.7834973"
         transform="rotate(11)" />
      <circle
         style="opacity:1;fill:#895ba5;fill-opacity:1;fill-rule:nonzero;stroke:url(#linearGradient8113);stroke-width:0.43196729;stroke-linejoin:miter;stroke-miterlimit:4;stroke-dasharray:3.45573826, 0.86393456, 0.43196728, 0.86393456;stroke-dashoffset:0;stroke-opacity:1"
         id="path5557-3-9-7-0-1-4"
         cx="139.19157"
         cy="213.12456"
         r="3.7834973"
         transform="rotate(11)" />
      <circle
         style="opacity:1;fill:#1a1a1a;fill-opacity:1;fill-rule:nonzero;stroke:url(#linearGradient8115);stroke-width:0.17200001;stroke-miterlimit:4;stroke-dasharray:none;stroke-opacity:1"
         id="path5557-3-9-8"
         cy="198.66309"
         cx="128.2012"
         r="2.4137931" />
      <circle
         style="opacity:1;fill:#1a1a1a;fill-opacity:1;fill-rule:nonzero;stroke:url(#linearGradient7315);stroke-width:0.1724138;stroke-miterlimit:4;stroke-dasharray:none;stroke-opacity:1"
         id="path5557-3-9-8-6"
         cy="196.54645"
         cx="128.2012"
         r="0" />
      <circle
         style="opacity:1;fill:#1a1a1a;fill-opacity:1;fill-rule:nonzero;stroke:url(#linearGradient7165-5);stroke-width:0.17200001;stroke-linejoin:miter;stroke-miterlimit:4;stroke-dasharray:none;stroke-dashoffset:0;stroke-opacity:1"
         id="path5557-3-9-7-0-1-47"
         cx="96.751976"
         cy="166.69"
         r="2.4440379"
         transform="rotate(11)" />
      <circle
         style="opacity:0.98999999;fill:#895ba5;fill-opacity:1;fill-rule:nonzero;stroke:url(#linearGradient7165-4);stroke-width:0.43196729;stroke-linejoin:miter;stroke-miterlimit:4;stroke-dasharray:3.45573826, 0.86393456, 0.43196728, 0.86393456;stroke-dashoffset:0;stroke-opacity:1;filter:url(#filter7660)"
         id="path5557-3-9-7-0-1-7"
         cx="186.65312"
         cy="172.34335"
         r="3.7834973"
         transform="matrix(0.77081893,0.14983202,-0.14983202,0.77081893,32.387043,44.407917)" />
      <circle
         style="opacity:0.98999999;fill:#895ba5;fill-opacity:1;fill-rule:nonzero;stroke:url(#linearGradient7165-4-3);stroke-width:0.43196729;stroke-linejoin:miter;stroke-miterlimit:4;stroke-dasharray:3.45573826, 0.86393456, 0.43196728, 0.86393456;stroke-dashoffset:0;stroke-opacity:1;filter:url(#filter7660-9)"
         id="path5557-3-9-7-0-1-7-0"
         cx="186.65312"
         cy="172.34335"
         r="3.7834973"
         transform="matrix(0.77081893,0.14983202,-0.14983202,0.77081893,-38.674157,18.060108)" />
      <rect
         style="opacity:1;fill:#f8f6ed;fill-opacity:1;fill-rule:nonzero;stroke:none;stroke-width:0.22688739;stroke-miterlimit:4;stroke-dasharray:none;stroke-opacity:1"
         id="rect5517-68"
         width="50.316422"
         height="2.0364227"
         x="182.04391"
         y="13.317055"
         transform="matrix(0.43308818,0.90135156,-0.94034507,0.34022219,0,0)" />
      <circle
         style="opacity:1;fill:#f8f6ed;fill-opacity:1;fill-rule:nonzero;stroke:none;stroke-width:0.37703118;stroke-miterlimit:4;stroke-dasharray:none;stroke-opacity:1"
         id="path5557-9"
         cx="86.806671"
         cy="213.53418"
         r="2.375" />
      <circle
         style="opacity:1;fill:#f8f6ed;fill-opacity:1;fill-rule:nonzero;stroke:none;stroke-width:0.37703118;stroke-miterlimit:4;stroke-dasharray:none;stroke-opacity:1"
         id="path5557-9-2"
         cx="65.621918"
         cy="169.91275"
         r="2.3750002" />
      <circle
         style="opacity:1;fill:#f8f6ed;fill-opacity:1;fill-rule:nonzero;stroke:none;stroke-width:0.11112497;stroke-miterlimit:4;stroke-dasharray:none;stroke-opacity:1;filter:url(#filter7869)"
         id="path5557-9-2-6"
         cx="73.022537"
         cy="175.45476"
         r="0.69999999" />
      <rect
         style="opacity:0.85;fill:#f8f6ed;fill-opacity:1;fill-rule:nonzero;stroke:none;stroke-width:0.07648134;stroke-miterlimit:4;stroke-dasharray:none;stroke-opacity:1;filter:url(#filter7833)"
         id="rect5517-68-4"
         width="16.734682"
         height="0.69574571"
         x="108.94541"
         y="-151.04176"
         transform="matrix(-0.49622143,0.868196,-0.84264306,-0.53847254,0,0)" />
      <circle
         style="opacity:1;fill:#f8f6ed;fill-opacity:1;fill-rule:nonzero;stroke:none;stroke-width:0.11112497;stroke-miterlimit:4;stroke-dasharray:none;stroke-opacity:1;filter:url(#filter7861)"
         id="path5557-9-2-6-9"
         cx="64.728424"
         cy="190.07997"
         r="0.69999999" />
      <circle
         style="opacity:0.98999999;fill:#1a1a1a;fill-opacity:1;fill-rule:nonzero;stroke:url(#linearGradient7241-4);stroke-width:0.0688057;stroke-miterlimit:4;stroke-dasharray:none;stroke-opacity:1;filter:url(#filter7976)"
         id="path5557-3-9-8-1"
         cy="208.70683"
         cx="80.780899"
         r="0.96559715" />
      <circle
         style="opacity:0.98999999;fill:#1a1a1a;fill-opacity:1;fill-rule:nonzero;stroke:url(#linearGradient8063);stroke-width:0.0688057;stroke-miterlimit:4;stroke-dasharray:none;stroke-opacity:1;filter:url(#filter7976-0)"
         id="path5557-3-9-8-1-1"
         cy="180.67093"
         cx="139.84879"
         r="0.96559715" />
    </g>
  </g>
</svg>
