<?xml version="1.0" encoding="UTF-8" standalone="no"?>
<!-- Created with Inkscape (http://www.inkscape.org/) -->

<svg
   xmlns:dc="http://purl.org/dc/elements/1.1/"
   xmlns:cc="http://creativecommons.org/ns#"
   xmlns:rdf="http://www.w3.org/1999/02/22-rdf-syntax-ns#"
   xmlns:svg="http://www.w3.org/2000/svg"
   xmlns="http://www.w3.org/2000/svg"
   xmlns:sodipodi="http://sodipodi.sourceforge.net/DTD/sodipodi-0.dtd"
   xmlns:inkscape="http://www.inkscape.org/namespaces/inkscape"
   width="512"
   height="512"
   viewBox="0 0 135.46666 135.46666"
   version="1.1"
   id="svg8"
   inkscape:version="0.92.4 (5da689c313, 2019-01-14)"
   sodipodi:docname="i2p_edgy-is.svg">
  <defs
     id="defs2" />
  <sodipodi:namedview
     id="base"
     pagecolor="#ffffff"
     bordercolor="#666666"
     borderopacity="1.0"
     inkscape:pageopacity="0.0"
     inkscape:pageshadow="2"
     inkscape:zoom="0.69602273"
     inkscape:cx="248.24905"
     inkscape:cy="267.60063"
     inkscape:document-units="mm"
     inkscape:current-layer="layer1"
     showgrid="false"
     units="px"
     inkscape:window-width="1366"
     inkscape:window-height="693"
     inkscape:window-x="0"
     inkscape:window-y="27"
     inkscape:window-maximized="1" />
  <metadata
     id="metadata5">
    <rdf:RDF>
      <cc:Work
         rdf:about="">
        <dc:format>image/svg+xml</dc:format>
        <dc:type
           rdf:resource="http://purl.org/dc/dcmitype/StillImage" />
        <dc:title></dc:title>
      </cc:Work>
    </rdf:RDF>
  </metadata>
  <g
     inkscape:label="Ebene 1"
     inkscape:groupmode="layer"
     id="layer1"
     transform="translate(0,-161.53334)">
    <g
       id="g3698">
      <rect
         y="163.14157"
         x="18.509985"
         height="132.89799"
         width="92.891998"
         id="rect3628"
         style="opacity:1;fill:#010101;fill-opacity:1;stroke:none;stroke-width:5.48387718;stroke-linecap:butt;stroke-linejoin:round;stroke-miterlimit:4;stroke-dasharray:none;stroke-dashoffset:68.03148651;stroke-opacity:1;paint-order:normal" />
      <rect
         y="275.83374"
         x="41.010418"
         height="11.786"
         width="33.073002"
         id="rect3561"
         style="opacity:1;fill:#576e57;fill-opacity:1;stroke:none;stroke-width:5.47745228;stroke-linecap:butt;stroke-linejoin:round;stroke-miterlimit:4;stroke-dasharray:none;stroke-dashoffset:68.03148651;stroke-opacity:1;paint-order:normal" />
      <rect
         y="268.95459"
         x="67.99794"
         height="19.860001"
         width="33.072918"
         id="rect3561-0"
         style="opacity:1;fill:#576e57;fill-opacity:1;stroke:none;stroke-width:7.11024332;stroke-linecap:butt;stroke-linejoin:round;stroke-miterlimit:4;stroke-dasharray:none;stroke-dashoffset:68.03148651;stroke-opacity:1;paint-order:normal" />
      <rect
         y="259.16495"
         x="70.958076"
         height="24.34"
         width="23.497999"
         id="rect3483"
         style="opacity:1;fill:#95bb95;fill-opacity:1;stroke:none;stroke-width:2.56403327;stroke-linecap:butt;stroke-linejoin:round;stroke-miterlimit:4;stroke-dasharray:none;stroke-dashoffset:68.03148651;stroke-opacity:1;paint-order:normal" />
      <rect
         y="168.55432"
         x="37.485374"
         height="82.1436"
         width="61.748001"
         id="rect3605"
         style="opacity:1;fill:#ffff01;fill-opacity:1;stroke:none;stroke-width:9.73909187;stroke-linecap:butt;stroke-linejoin:round;stroke-miterlimit:4;stroke-dasharray:none;stroke-dashoffset:68.03148651;stroke-opacity:1;paint-order:normal" />
      <rect
         y="252.77092"
         x="40.529934"
         height="6.2410002"
         width="12.651"
         id="rect3578"
         style="opacity:1;fill:#fbb5a7;fill-opacity:1;stroke:none;stroke-width:2.88749242;stroke-linecap:butt;stroke-linejoin:round;stroke-miterlimit:4;stroke-dasharray:none;stroke-dashoffset:68.03148651;stroke-opacity:1;paint-order:normal" />
      <rect
         y="261.65012"
         x="41.536407"
         height="22.121"
         width="25.524"
         id="rect3481"
         style="opacity:1;fill:#9fc79f;fill-opacity:1;stroke:none;stroke-width:2.17067337;stroke-linecap:butt;stroke-linejoin:round;stroke-miterlimit:4;stroke-dasharray:none;stroke-dashoffset:68.03148651;stroke-opacity:1;paint-order:normal" />
      <rect
         y="237.2075"
         x="27.330135"
         height="13.755"
         width="26.507999"
         id="rect3485"
         style="opacity:1;fill:#ff013d;fill-opacity:1;stroke:none;stroke-width:3.29325438;stroke-linecap:butt;stroke-linejoin:round;stroke-miterlimit:4;stroke-dasharray:none;stroke-dashoffset:68.03148651;stroke-opacity:1;paint-order:normal" />
      <rect
         y="225.59178"
         x="56.038486"
         height="34.234001"
         width="46.93"
         id="rect3485-7"
         style="opacity:1;fill:#ff013d;fill-opacity:1;stroke:none;stroke-width:6.91290569;stroke-linecap:butt;stroke-linejoin:round;stroke-miterlimit:4;stroke-dasharray:none;stroke-dashoffset:68.03148651;stroke-opacity:1;paint-order:normal" />
      <rect
         y="250.91389"
         x="89.286026"
         height="9.0500002"
         width="9.4060001"
         id="rect3578-4"
         style="opacity:1;fill:#fbb5a7;fill-opacity:1;stroke:none;stroke-width:2.99818325;stroke-linecap:butt;stroke-linejoin:round;stroke-miterlimit:4;stroke-dasharray:none;stroke-dashoffset:68.03148651;stroke-opacity:1;paint-order:normal" />
      <rect
         y="182.18849"
         x="43.819496"
         height="21.870001"
         width="21.604"
         id="rect3607"
         style="opacity:1;fill:#010101;fill-opacity:1;stroke:none;stroke-width:4.1959691;stroke-linecap:butt;stroke-linejoin:round;stroke-miterlimit:4;stroke-dasharray:none;stroke-dashoffset:68.03148651;stroke-opacity:1;paint-order:normal" />
      <rect
         y="181.24039"
         x="70.604591"
         height="22.153999"
         width="21.283001"
         id="rect3607-1"
         style="opacity:1;fill:#010101;fill-opacity:1;stroke:none;stroke-width:4.1916337;stroke-linecap:butt;stroke-linejoin:round;stroke-miterlimit:4;stroke-dasharray:none;stroke-dashoffset:68.03148651;stroke-opacity:1;paint-order:normal" />
      <rect
         y="185.41199"
         x="46.96804"
         height="15.015104"
         width="15.375466"
         id="rect3630"
         style="opacity:1;fill:#ffffff;fill-opacity:1;stroke:none;stroke-width:4.08120441;stroke-linecap:butt;stroke-linejoin:round;stroke-miterlimit:4;stroke-dasharray:none;stroke-dashoffset:68.03148651;stroke-opacity:1;paint-order:normal" />
      <rect
         y="184.5042"
         x="73.358109"
         height="15.12914"
         width="15.44902"
         id="rect3634"
         style="opacity:1;fill:#ffffff;fill-opacity:1;stroke:none;stroke-width:2.8778832;stroke-linecap:butt;stroke-linejoin:round;stroke-miterlimit:4;stroke-dasharray:none;stroke-dashoffset:68.03148651;stroke-opacity:1;paint-order:normal" />
      <rect
         y="192.11104"
         x="49.59053"
         height="8.3160563"
         width="10.130487"
         id="rect4341"
         style="opacity:1;fill:#000000;fill-opacity:1;stroke:none;stroke-width:5.52275896;stroke-linecap:butt;stroke-linejoin:round;stroke-miterlimit:4;stroke-dasharray:none;stroke-dashoffset:68.03148651;stroke-opacity:1;paint-order:normal" />
      <rect
         y="191.25935"
         x="76.683517"
         height="8.3739824"
         width="8.7982006"
         id="rect4341-4"
         style="opacity:1;fill:#000000;fill-opacity:1;stroke:none;stroke-width:5.16470051;stroke-linecap:butt;stroke-linejoin:round;stroke-miterlimit:4;stroke-dasharray:none;stroke-dashoffset:68.03148651;stroke-opacity:1;paint-order:normal" />
    </g>
  </g>
</svg>
