<?xml version="1.0" encoding="UTF-8" standalone="no"?>
<svg
   xmlns:dc="http://purl.org/dc/elements/1.1/"
   xmlns:cc="http://creativecommons.org/ns#"
   xmlns:rdf="http://www.w3.org/1999/02/22-rdf-syntax-ns#"
   xmlns:svg="http://www.w3.org/2000/svg"
   xmlns="http://www.w3.org/2000/svg"
   xmlns:xlink="http://www.w3.org/1999/xlink"
   id="svg8"
   version="1.1"
   viewBox="0 0 310 310"
   height="310mm"
   width="310mm">
  <defs
     id="defs2">
    <linearGradient
       xlink:href="#linearGradient856"
       id="linearGradient858"
       x1="82.095139"
       y1="22.45153"
       x2="81.73661"
       y2="-46.542347"
       gradientUnits="userSpaceOnUse" />
    <linearGradient
       id="linearGradient856">
      <stop
         style="stop-color:#cccccc;stop-opacity:1;"
         offset="0"
         id="stop852" />
      <stop
         style="stop-color:#cccccc;stop-opacity:0;"
         offset="1"
         id="stop854" />
    </linearGradient>
    <linearGradient
       xlink:href="#linearGradient856"
       id="linearGradient858-5"
       x1="82.095139"
       y1="22.45153"
       x2="81.73661"
       y2="-46.542347"
       gradientUnits="userSpaceOnUse" />
    <linearGradient
       xlink:href="#linearGradient856"
       id="linearGradient858-3"
       x1="82.095139"
       y1="22.45153"
       x2="81.73661"
       y2="-46.542347"
       gradientUnits="userSpaceOnUse" />
    <linearGradient
       xlink:href="#linearGradient856"
       id="linearGradient858-3-2"
       x1="82.095139"
       y1="22.45153"
       x2="81.73661"
       y2="-46.542347"
       gradientUnits="userSpaceOnUse" />
    <linearGradient
       xlink:href="#linearGradient856"
       id="linearGradient858-3-2-3"
       x1="82.095139"
       y1="22.45153"
       x2="81.73661"
       y2="-46.542347"
       gradientUnits="userSpaceOnUse" />
    <linearGradient
       xlink:href="#linearGradient856"
       id="linearGradient858-3-2-1"
       x1="82.095139"
       y1="22.45153"
       x2="81.73661"
       y2="-46.542347"
       gradientUnits="userSpaceOnUse" />
    <linearGradient
       xlink:href="#linearGradient856"
       id="linearGradient858-3-2-1-7"
       x1="82.095139"
       y1="22.45153"
       x2="81.73661"
       y2="-46.542347"
       gradientUnits="userSpaceOnUse" />
    <linearGradient
       xlink:href="#linearGradient856"
       id="linearGradient858-3-2-1-7-6"
       x1="82.095139"
       y1="22.45153"
       x2="81.73661"
       y2="-46.542347"
       gradientUnits="userSpaceOnUse" />
    <linearGradient
       xlink:href="#linearGradient856"
       id="linearGradient858-3-2-1-7-1"
       x1="82.095139"
       y1="22.45153"
       x2="81.73661"
       y2="-46.542347"
       gradientUnits="userSpaceOnUse" />
    <linearGradient
       xlink:href="#linearGradient856"
       id="linearGradient858-3-2-1-7-61"
       x1="82.095139"
       y1="22.45153"
       x2="81.73661"
       y2="-46.542347"
       gradientUnits="userSpaceOnUse" />
    <linearGradient
       xlink:href="#linearGradient856"
       id="linearGradient858-3-2-1-7-11"
       x1="82.095139"
       y1="22.45153"
       x2="81.73661"
       y2="-46.542347"
       gradientUnits="userSpaceOnUse" />
    <linearGradient
       xlink:href="#linearGradient856"
       id="linearGradient858-3-2-1-7-5"
       x1="82.095139"
       y1="22.45153"
       x2="81.73661"
       y2="-46.542347"
       gradientUnits="userSpaceOnUse" />
  </defs>
  <metadata
     id="metadata5">
    <rdf:RDF>
      <cc:Work
         rdf:about="">
        <dc:format>image/svg+xml</dc:format>
        <dc:type
           rdf:resource="http://purl.org/dc/dcmitype/StillImage" />
        <dc:title></dc:title>
      </cc:Work>
    </rdf:RDF>
  </metadata>
  <g
     transform="translate(0,13)"
     id="layer1">
    <rect
       ry="12.310369"
       y="-8.5"
       x="4.5"
       height="301"
       width="301"
       id="rect952"
       style="opacity:1;fill:#ffffff;fill-opacity:1;stroke:none;stroke-width:3.59362054;stroke-linecap:butt;stroke-linejoin:round;stroke-miterlimit:4;stroke-dasharray:none;stroke-dashoffset:0;stroke-opacity:1;paint-order:normal" />
    <g
       id="g1531">
      <ellipse
         style="opacity:1;fill:#576e57;fill-opacity:1;stroke:none;stroke-width:1.64419842;stroke-linecap:butt;stroke-linejoin:round;stroke-miterlimit:4;stroke-dasharray:none;stroke-dashoffset:0;stroke-opacity:1;paint-order:normal"
         id="path815"
         cx="58.521"
         cy="45.520996"
         rx="40"
         ry="40.000004" />
    </g>
    <g
       id="g1525">
      <ellipse
         style="opacity:1;fill:#ff013d;fill-opacity:1;stroke:none;stroke-width:1.6441983;stroke-linecap:butt;stroke-linejoin:round;stroke-miterlimit:4;stroke-dasharray:none;stroke-dashoffset:0;stroke-opacity:1;paint-order:normal"
         id="path815-3"
         cx="251.479"
         cy="45.520996"
         rx="40"
         ry="40.000004" />
    </g>
    <g
       id="g1528">
      <ellipse
         style="opacity:1;fill:#ffff01;fill-opacity:1;stroke:none;stroke-width:1.6441983;stroke-linecap:butt;stroke-linejoin:round;stroke-miterlimit:4;stroke-dasharray:none;stroke-dashoffset:0;stroke-opacity:1;paint-order:normal"
         id="path815-3-6"
         cx="155"
         cy="238.47919"
         rx="40"
         ry="40.000004" />
    </g>
    <g
       id="g1477">
      <g
         transform="matrix(0.08280157,0,0,0.08280157,79.341771,101.24059)"
         id="layer1-7">
        <g
           id="g28395">
          <rect
             style="opacity:1;fill:#f2f2f2;fill-opacity:1;stroke:#0d0d0d;stroke-width:2.50449324;stroke-linecap:butt;stroke-linejoin:round;stroke-miterlimit:4;stroke-dasharray:none;stroke-dashoffset:0;stroke-opacity:1;paint-order:normal"
             id="rect815"
             width="230.36244"
             height="118.26616"
             x="39.818779"
             y="82.86692"
             ry="0" />
          <path
             style="opacity:1;fill:url(#linearGradient858);fill-opacity:1;stroke:#000000;stroke-width:2.49977779;stroke-linecap:butt;stroke-linejoin:round;stroke-miterlimit:4;stroke-dasharray:none;stroke-dashoffset:0;stroke-opacity:1;paint-order:normal"
             id="path819"
             d="M 141.3871,38.955092 21.212554,38.450739 81.736608,-65.37129 Z"
             transform="matrix(1.8966306,0,0,0.61828818,0.80426298,176.60985)" />
          <path
             style="opacity:1;fill:#b3b3b3;fill-opacity:1;stroke:#0d0d0d;stroke-width:2.5;stroke-linecap:butt;stroke-linejoin:round;stroke-miterlimit:4;stroke-dasharray:none;stroke-dashoffset:0;stroke-opacity:1;paint-order:normal"
             id="path819-3"
             d="M 141.3871,38.955092 21.212554,38.450739 81.736608,-65.37129 Z"
             transform="matrix(1.8966306,0,0,-0.61828818,0.80426298,107.41497)" />
        </g>
      </g>
      <ellipse
         style="opacity:1;fill:#576e57;fill-opacity:1;stroke:none;stroke-width:0.20552482;stroke-linecap:butt;stroke-linejoin:round;stroke-miterlimit:4;stroke-dasharray:none;stroke-dashoffset:0;stroke-opacity:1;paint-order:normal"
         id="path815-5"
         cx="83.270592"
         cy="95.996437"
         rx="5"
         ry="5.0000005" />
      <g
         transform="matrix(0.08280157,0,0,0.08280157,97.554728,138.02132)"
         id="layer1-7-9">
        <g
           id="g28395-1">
          <rect
             style="opacity:1;fill:#f2f2f2;fill-opacity:1;stroke:#0d0d0d;stroke-width:2.50449324;stroke-linecap:butt;stroke-linejoin:round;stroke-miterlimit:4;stroke-dasharray:none;stroke-dashoffset:0;stroke-opacity:1;paint-order:normal"
             id="rect815-2"
             width="230.36244"
             height="118.26616"
             x="39.818779"
             y="82.86692"
             ry="0" />
          <path
             style="opacity:1;fill:url(#linearGradient858-5);fill-opacity:1;stroke:#000000;stroke-width:2.49977779;stroke-linecap:butt;stroke-linejoin:round;stroke-miterlimit:4;stroke-dasharray:none;stroke-dashoffset:0;stroke-opacity:1;paint-order:normal"
             id="path819-7"
             d="M 141.3871,38.955092 21.212554,38.450739 81.736608,-65.37129 Z"
             transform="matrix(1.8966306,0,0,0.61828818,0.80426298,176.60985)" />
          <path
             style="opacity:1;fill:#b3b3b3;fill-opacity:1;stroke:#0d0d0d;stroke-width:2.5;stroke-linecap:butt;stroke-linejoin:round;stroke-miterlimit:4;stroke-dasharray:none;stroke-dashoffset:0;stroke-opacity:1;paint-order:normal"
             id="path819-3-0"
             d="M 141.3871,38.955092 21.212554,38.450739 81.736608,-65.37129 Z"
             transform="matrix(1.8966306,0,0,-0.61828818,0.80426298,107.41497)" />
        </g>
      </g>
      <ellipse
         style="opacity:1;fill:#576e57;fill-opacity:1;stroke:none;stroke-width:0.20552483;stroke-linecap:butt;stroke-linejoin:round;stroke-miterlimit:4;stroke-dasharray:none;stroke-dashoffset:0;stroke-opacity:1;paint-order:normal"
         id="path815-5-9"
         cx="101.48354"
         cy="132.7771"
         rx="5"
         ry="5.0000005" />
      <g
         transform="matrix(0.08280157,0,0,0.08280157,118.44712,172.46466)"
         id="layer1-7-6">
        <g
           id="g28395-2">
          <rect
             style="opacity:1;fill:#f2f2f2;fill-opacity:1;stroke:#0d0d0d;stroke-width:2.50449324;stroke-linecap:butt;stroke-linejoin:round;stroke-miterlimit:4;stroke-dasharray:none;stroke-dashoffset:0;stroke-opacity:1;paint-order:normal"
             id="rect815-6"
             width="230.36244"
             height="118.26616"
             x="39.818779"
             y="82.86692"
             ry="0" />
          <path
             style="opacity:1;fill:url(#linearGradient858-3);fill-opacity:1;stroke:#000000;stroke-width:2.49977779;stroke-linecap:butt;stroke-linejoin:round;stroke-miterlimit:4;stroke-dasharray:none;stroke-dashoffset:0;stroke-opacity:1;paint-order:normal"
             id="path819-1"
             d="M 141.3871,38.955092 21.212554,38.450739 81.736608,-65.37129 Z"
             transform="matrix(1.8966306,0,0,0.61828818,0.80426298,176.60985)" />
          <path
             style="opacity:1;fill:#b3b3b3;fill-opacity:1;stroke:#0d0d0d;stroke-width:2.5;stroke-linecap:butt;stroke-linejoin:round;stroke-miterlimit:4;stroke-dasharray:none;stroke-dashoffset:0;stroke-opacity:1;paint-order:normal"
             id="path819-3-8"
             d="M 141.3871,38.955092 21.212554,38.450739 81.736608,-65.37129 Z"
             transform="matrix(1.8966306,0,0,-0.61828818,0.80426298,107.41497)" />
        </g>
      </g>
      <ellipse
         style="opacity:1;fill:#576e57;fill-opacity:1;stroke:none;stroke-width:0.20552483;stroke-linecap:butt;stroke-linejoin:round;stroke-miterlimit:4;stroke-dasharray:none;stroke-dashoffset:0;stroke-opacity:1;paint-order:normal"
         id="path815-5-7"
         cx="122.37591"
         cy="167.22046"
         rx="5"
         ry="5.0000005" />
    </g>
    <g
       id="g1457">
      <ellipse
         style="opacity:1;fill:#ffff01;fill-opacity:1;stroke:none;stroke-width:0.20552477;stroke-linecap:butt;stroke-linejoin:round;stroke-miterlimit:4;stroke-dasharray:none;stroke-dashoffset:0;stroke-opacity:1;paint-order:normal"
         id="path815-3-6-9"
         cx="185.4789"
         cy="192.87021"
         rx="4.9999995"
         ry="5" />
      <g
         transform="matrix(0.08280157,0,0,0.08280157,183.31596,164.35892)"
         id="layer1-7-6-3">
        <g
           id="g28395-2-7">
          <rect
             style="opacity:1;fill:#f2f2f2;fill-opacity:1;stroke:#0d0d0d;stroke-width:2.50449324;stroke-linecap:butt;stroke-linejoin:round;stroke-miterlimit:4;stroke-dasharray:none;stroke-dashoffset:0;stroke-opacity:1;paint-order:normal"
             id="rect815-6-5"
             width="230.36244"
             height="118.26616"
             x="39.818779"
             y="82.86692"
             ry="0" />
          <path
             style="opacity:1;fill:url(#linearGradient858-3-2);fill-opacity:1;stroke:#000000;stroke-width:2.49977779;stroke-linecap:butt;stroke-linejoin:round;stroke-miterlimit:4;stroke-dasharray:none;stroke-dashoffset:0;stroke-opacity:1;paint-order:normal"
             id="path819-1-9"
             d="M 141.3871,38.955092 21.212554,38.450739 81.736608,-65.37129 Z"
             transform="matrix(1.8966306,0,0,0.61828818,0.80426298,176.60985)" />
          <path
             style="opacity:1;fill:#b3b3b3;fill-opacity:1;stroke:#0d0d0d;stroke-width:2.5;stroke-linecap:butt;stroke-linejoin:round;stroke-miterlimit:4;stroke-dasharray:none;stroke-dashoffset:0;stroke-opacity:1;paint-order:normal"
             id="path819-3-8-2"
             d="M 141.3871,38.955092 21.212554,38.450739 81.736608,-65.37129 Z"
             transform="matrix(1.8966306,0,0,-0.61828818,0.80426298,107.41497)" />
        </g>
      </g>
      <ellipse
         style="opacity:1;fill:#ffff01;fill-opacity:1;stroke:none;stroke-width:0.20552477;stroke-linecap:butt;stroke-linejoin:round;stroke-miterlimit:4;stroke-dasharray:none;stroke-dashoffset:0;stroke-opacity:1;paint-order:normal"
         id="path815-3-6-9-0"
         cx="202.93929"
         cy="156.3634"
         rx="4.9999995"
         ry="5" />
      <g
         transform="matrix(0.08280157,0,0,0.08280157,200.77634,127.85211)"
         id="layer1-7-6-3-6">
        <g
           id="g28395-2-7-3">
          <rect
             style="opacity:1;fill:#f2f2f2;fill-opacity:1;stroke:#0d0d0d;stroke-width:2.50449324;stroke-linecap:butt;stroke-linejoin:round;stroke-miterlimit:4;stroke-dasharray:none;stroke-dashoffset:0;stroke-opacity:1;paint-order:normal"
             id="rect815-6-5-2"
             width="230.36244"
             height="118.26616"
             x="39.818779"
             y="82.86692"
             ry="0" />
          <path
             style="opacity:1;fill:url(#linearGradient858-3-2-3);fill-opacity:1;stroke:#000000;stroke-width:2.49977779;stroke-linecap:butt;stroke-linejoin:round;stroke-miterlimit:4;stroke-dasharray:none;stroke-dashoffset:0;stroke-opacity:1;paint-order:normal"
             id="path819-1-9-0"
             d="M 141.3871,38.955092 21.212554,38.450739 81.736608,-65.37129 Z"
             transform="matrix(1.8966306,0,0,0.61828818,0.80426298,176.60985)" />
          <path
             style="opacity:1;fill:#b3b3b3;fill-opacity:1;stroke:#0d0d0d;stroke-width:2.5;stroke-linecap:butt;stroke-linejoin:round;stroke-miterlimit:4;stroke-dasharray:none;stroke-dashoffset:0;stroke-opacity:1;paint-order:normal"
             id="path819-3-8-2-6"
             d="M 141.3871,38.955092 21.212554,38.450739 81.736608,-65.37129 Z"
             transform="matrix(1.8966306,0,0,-0.61828818,0.80426298,107.41497)" />
        </g>
      </g>
      <ellipse
         style="opacity:1;fill:#ffff01;fill-opacity:1;stroke:none;stroke-width:0.20552477;stroke-linecap:butt;stroke-linejoin:round;stroke-miterlimit:4;stroke-dasharray:none;stroke-dashoffset:0;stroke-opacity:1;paint-order:normal"
         id="path815-3-6-9-4"
         cx="222.70636"
         cy="119.11008"
         rx="4.9999995"
         ry="5" />
      <g
         transform="matrix(0.08280157,0,0,0.08280157,220.54342,90.598773)"
         id="layer1-7-6-3-7">
        <g
           id="g28395-2-7-6">
          <rect
             style="opacity:1;fill:#f2f2f2;fill-opacity:1;stroke:#0d0d0d;stroke-width:2.50449324;stroke-linecap:butt;stroke-linejoin:round;stroke-miterlimit:4;stroke-dasharray:none;stroke-dashoffset:0;stroke-opacity:1;paint-order:normal"
             id="rect815-6-5-5"
             width="230.36244"
             height="118.26616"
             x="39.818779"
             y="82.86692"
             ry="0" />
          <path
             style="opacity:1;fill:url(#linearGradient858-3-2-1);fill-opacity:1;stroke:#000000;stroke-width:2.49977779;stroke-linecap:butt;stroke-linejoin:round;stroke-miterlimit:4;stroke-dasharray:none;stroke-dashoffset:0;stroke-opacity:1;paint-order:normal"
             id="path819-1-9-6"
             d="M 141.3871,38.955092 21.212554,38.450739 81.736608,-65.37129 Z"
             transform="matrix(1.8966306,0,0,0.61828818,0.80426298,176.60985)" />
          <path
             style="opacity:1;fill:#b3b3b3;fill-opacity:1;stroke:#0d0d0d;stroke-width:2.5;stroke-linecap:butt;stroke-linejoin:round;stroke-miterlimit:4;stroke-dasharray:none;stroke-dashoffset:0;stroke-opacity:1;paint-order:normal"
             id="path819-3-8-2-9"
             d="M 141.3871,38.955092 21.212554,38.450739 81.736608,-65.37129 Z"
             transform="matrix(1.8966306,0,0,-0.61828818,0.80426298,107.41497)" />
        </g>
      </g>
    </g>
    <g
       id="g1437">
      <ellipse
         style="opacity:1;fill:#ff013d;fill-opacity:1;stroke:none;stroke-width:0.20552477;stroke-linecap:butt;stroke-linejoin:round;stroke-miterlimit:4;stroke-dasharray:none;stroke-dashoffset:0;stroke-opacity:1;paint-order:normal"
         id="path815-3-3"
         cx="200.45323"
         cy="48.695999"
         rx="4.9999995"
         ry="5" />
      <g
         transform="matrix(0.08280157,0,0,0.08280157,169.93565,29.593341)"
         id="layer1-7-6-3-7-2">
        <g
           id="g28395-2-7-6-5">
          <rect
             style="opacity:1;fill:#f2f2f2;fill-opacity:1;stroke:#0d0d0d;stroke-width:2.50449324;stroke-linecap:butt;stroke-linejoin:round;stroke-miterlimit:4;stroke-dasharray:none;stroke-dashoffset:0;stroke-opacity:1;paint-order:normal"
             id="rect815-6-5-5-4"
             width="230.36244"
             height="118.26616"
             x="39.818779"
             y="82.86692"
             ry="0" />
          <path
             style="opacity:1;fill:url(#linearGradient858-3-2-1-7);fill-opacity:1;stroke:#000000;stroke-width:2.49977779;stroke-linecap:butt;stroke-linejoin:round;stroke-miterlimit:4;stroke-dasharray:none;stroke-dashoffset:0;stroke-opacity:1;paint-order:normal"
             id="path819-1-9-6-7"
             d="M 141.3871,38.955092 21.212554,38.450739 81.736608,-65.37129 Z"
             transform="matrix(1.8966306,0,0,0.61828818,0.80426298,176.60985)" />
          <path
             style="opacity:1;fill:#b3b3b3;fill-opacity:1;stroke:#0d0d0d;stroke-width:2.5;stroke-linecap:butt;stroke-linejoin:round;stroke-miterlimit:4;stroke-dasharray:none;stroke-dashoffset:0;stroke-opacity:1;paint-order:normal"
             id="path819-3-8-2-9-4"
             d="M 141.3871,38.955092 21.212554,38.450739 81.736608,-65.37129 Z"
             transform="matrix(1.8966306,0,0,-0.61828818,0.80426298,107.41497)" />
        </g>
      </g>
      <ellipse
         style="opacity:1;fill:#ff013d;fill-opacity:1;stroke:none;stroke-width:0.20552477;stroke-linecap:butt;stroke-linejoin:round;stroke-miterlimit:4;stroke-dasharray:none;stroke-dashoffset:0;stroke-opacity:1;paint-order:normal"
         id="path815-3-3-7"
         cx="165.56429"
         cy="50.410503"
         rx="4.9999995"
         ry="5" />
      <g
         transform="matrix(0.08280157,0,0,0.08280157,135.57592,29.593341)"
         id="layer1-7-6-3-7-2-7">
        <g
           id="g28395-2-7-6-5-6">
          <rect
             style="opacity:1;fill:#f2f2f2;fill-opacity:1;stroke:#0d0d0d;stroke-width:2.50449324;stroke-linecap:butt;stroke-linejoin:round;stroke-miterlimit:4;stroke-dasharray:none;stroke-dashoffset:0;stroke-opacity:1;paint-order:normal"
             id="rect815-6-5-5-4-7"
             width="230.36244"
             height="118.26616"
             x="39.818779"
             y="82.86692"
             ry="0" />
          <path
             style="opacity:1;fill:url(#linearGradient858-3-2-1-7-11);fill-opacity:1;stroke:#000000;stroke-width:2.49977779;stroke-linecap:butt;stroke-linejoin:round;stroke-miterlimit:4;stroke-dasharray:none;stroke-dashoffset:0;stroke-opacity:1;paint-order:normal"
             id="path819-1-9-6-7-3"
             d="M 141.3871,38.955092 21.212554,38.450739 81.736608,-65.37129 Z"
             transform="matrix(1.8966306,0,0,0.61828818,0.80426298,176.60985)" />
          <path
             style="opacity:1;fill:#b3b3b3;fill-opacity:1;stroke:#0d0d0d;stroke-width:2.5;stroke-linecap:butt;stroke-linejoin:round;stroke-miterlimit:4;stroke-dasharray:none;stroke-dashoffset:0;stroke-opacity:1;paint-order:normal"
             id="path819-3-8-2-9-4-6"
             d="M 141.3871,38.955092 21.212554,38.450739 81.736608,-65.37129 Z"
             transform="matrix(1.8966306,0,0,-0.61828818,0.80426298,107.41497)" />
        </g>
      </g>
      <ellipse
         style="opacity:1;fill:#ff013d;fill-opacity:1;stroke:none;stroke-width:0.20552477;stroke-linecap:butt;stroke-linejoin:round;stroke-miterlimit:4;stroke-dasharray:none;stroke-dashoffset:0;stroke-opacity:1;paint-order:normal"
         id="path815-3-3-9"
         cx="131.77409"
         cy="50.410503"
         rx="4.9999995"
         ry="5" />
      <g
         transform="matrix(0.08280157,0,0,0.08280157,100.72735,29.593341)"
         id="layer1-7-6-3-7-2-4">
        <g
           id="g28395-2-7-6-5-8">
          <rect
             style="opacity:1;fill:#f2f2f2;fill-opacity:1;stroke:#0d0d0d;stroke-width:2.50449324;stroke-linecap:butt;stroke-linejoin:round;stroke-miterlimit:4;stroke-dasharray:none;stroke-dashoffset:0;stroke-opacity:1;paint-order:normal"
             id="rect815-6-5-5-4-1"
             width="230.36244"
             height="118.26616"
             x="39.818779"
             y="82.86692"
             ry="0" />
          <path
             style="opacity:1;fill:url(#linearGradient858-3-2-1-7-5);fill-opacity:1;stroke:#000000;stroke-width:2.49977779;stroke-linecap:butt;stroke-linejoin:round;stroke-miterlimit:4;stroke-dasharray:none;stroke-dashoffset:0;stroke-opacity:1;paint-order:normal"
             id="path819-1-9-6-7-2"
             d="M 141.3871,38.955092 21.212554,38.450739 81.736608,-65.37129 Z"
             transform="matrix(1.8966306,0,0,0.61828818,0.80426298,176.60985)" />
          <path
             style="opacity:1;fill:#b3b3b3;fill-opacity:1;stroke:#0d0d0d;stroke-width:2.5;stroke-linecap:butt;stroke-linejoin:round;stroke-miterlimit:4;stroke-dasharray:none;stroke-dashoffset:0;stroke-opacity:1;paint-order:normal"
             id="path819-3-8-2-9-4-9"
             d="M 141.3871,38.955092 21.212554,38.450739 81.736608,-65.37129 Z"
             transform="matrix(1.8966306,0,0,-0.61828818,0.80426298,107.41497)" />
        </g>
      </g>
    </g>
    <ellipse
       ry="15.000002"
       rx="15"
       cy="238.47919"
       cx="155"
       id="path815-39"
       style="opacity:1;fill:#576e57;fill-opacity:1;stroke:none;stroke-width:0.61657447;stroke-linecap:butt;stroke-linejoin:round;stroke-miterlimit:4;stroke-dasharray:none;stroke-dashoffset:0;stroke-opacity:1;paint-order:normal" />
    <ellipse
       ry="15.000001"
       rx="15"
       cy="45.520996"
       cx="251.479"
       id="path815-3-6-0"
       style="opacity:1;fill:#ffff01;fill-opacity:1;stroke:none;stroke-width:0.61657435;stroke-linecap:butt;stroke-linejoin:round;stroke-miterlimit:4;stroke-dasharray:none;stroke-dashoffset:0;stroke-opacity:1;paint-order:normal" />
    <ellipse
       ry="15.000002"
       rx="15"
       cy="45.520996"
       cx="58.521"
       id="path815-3-8"
       style="opacity:1;fill:#ff013d;fill-opacity:1;stroke:none;stroke-width:0.61657435;stroke-linecap:butt;stroke-linejoin:round;stroke-miterlimit:4;stroke-dasharray:none;stroke-dashoffset:0;stroke-opacity:1;paint-order:normal" />
  </g>
</svg>
